/ZEUS_2001_S4815815/d01-x01-y01   1.0   # 8 bins from 0 to 0.8
/ZEUS_2001_S4815815/d01-x01-y02   0.1   # 8 bins from 0 to 0.8
/ZEUS_2001_S4815815/d02-x01-y01   0.1   # 2 bins from 14 to 21
/ZEUS_2001_S4815815/d03-x01-y01   0.1   # 4 bins from 14 to 29
/ZEUS_2001_S4815815/d04-x01-y01   0.1   # 7 bins from 14 to 48
/ZEUS_2001_S4815815/d05-x01-y01   0.1   # 6 bins from 14 to 41
/ZEUS_2001_S4815815/d06-x01-y01   0.1   # 9 bins from 14 to 65
/ZEUS_2001_S4815815/d07-x01-y01   0.1   # 10 bins from 14 to 75
/ZEUS_2001_S4815815/d08-x01-y01   1.0   # 1 bins from 14 to 17
/ZEUS_2001_S4815815/d09-x01-y01   1.0   # 4 bins from 14 to 29
/ZEUS_2001_S4815815/d10-x01-y01   1.0   # 5 bins from 14 to 35
/ZEUS_2001_S4815815/d11-x01-y01   1.0   # 5 bins from 14 to 35
/ZEUS_2001_S4815815/d12-x01-y01   1.0   # 8 bins from 14 to 55
/ZEUS_2001_S4815815/d13-x01-y01   1.0   # 9 bins from 14 to 65
/ZEUS_2001_S4815815/d14-x01-y01   0.1   # 7 bins from -1 to 2.4
/ZEUS_2001_S4815815/d15-x01-y01   0.1   # 7 bins from -1 to 2.4
/ZEUS_2001_S4815815/d16-x01-y01   0.1   # 7 bins from -1 to 2.4
/ZEUS_2001_S4815815/d17-x01-y01   1.0   # 6 bins from -0.5 to 2.4
/ZEUS_2001_S4815815/d18-x01-y01   1.0   # 7 bins from -1 to 2.4
/ZEUS_2001_S4815815/d19-x01-y01   1.0   # 7 bins from -1 to 2.4
/ZEUS_2001_S4815815/d20-x01-y01   0.3   # 8 bins from 0.1 to 1
/ZEUS_2001_S4815815/d21-x01-y01   0.3   # 8 bins from 0.1 to 1
/ZEUS_2001_S4815815/d22-x01-y01   0.3   # 4 bins from 0.1 to 1
/ZEUS_2001_S4815815/d23-x01-y01   0.3   # 4 bins from 0.1 to 1
