
Visit us on http://professor.hepforge.org/
Please cite arXiv:0907.2973 [hep-ph]
                                          2024-03-11 21:55:06
 ______           __                            _____ _____
 | ___ \         / _|                          |_   _|_   _|
 | |_/ / __ ___ | |_ ___  ___ ___  ___  _ __     | |   | |
 |  __/ '__/ _ \|  _/ _ \/ __/ __|/ _ \| '__|    | |   | |
 | |  | | | (_) | ||  __/\__ \__ \ (_) | |      _| |_ _| |_
 |_|  |_|  \___/|_| \___||___/___/\___/|_|     |_____|_____|

 Andy Buckley, Holger Schulz                          v2.4.2
 Copyright 2015-2023


