# ProfVersion: 2.4.2
# Date: 2024-03-11 22:57:06
# InterpolationFile: /home/narendran/Documents/CEDAR_stuff2/apfel-code-for-photon-pdfs/RUN2/ipol.dat
# DataDirectory: /home/narendran/Documents/CEDAR_stuff2/apfel-code-for-photon-pdfs/RUN2/prof_refdata_59
#
# Limits:
#	PDF_APL  	0.000965 0.998800
#	PDF_BPL  	-0.977988 1.974870
#	PDF_AHAD 	0.001407 0.999209
#	PDF_BHAD 	-0.986509 1.998866
#	PDF_AHADG	0.004202 1.996735
#	PDF_BHADG	-0.989979 1.485580
#
# Fixed:
#
# Minimisation result:
#
# GOF 1128.618058
# UNITGOF 1128.618058
# NDOF 237.000000
PDF_APL  	0.255772
PDF_BPL  	-0.318127
PDF_AHAD 	0.194272
PDF_BHAD 	0.095552
PDF_AHADG	1.905976
PDF_BHADG	0.737379
#
# MIGRAD errors:
#
# PDF_APL  	2.313997e-03
# PDF_BPL  	3.009842e-03
# PDF_AHAD 	1.826171e-03
# PDF_BHAD 	1.894836e-03
# PDF_AHADG	7.397164e-04
# PDF_BHADG	1.346792e-03
#
# Correlation matrix:
#
#
#
# Weights used
#
# /H1_2002_I581409/d01-x01-y01      0.6   # 6 bins from 45 to 180
# /H1_2002_I581409/d02-x01-y01      0.6   # 4 bins from 20 to 80
# /H1_2002_I581409/d03-x01-y01      0.6   # 4 bins from 25 to 80
# /H1_2002_I581409/d04-x01-y01      0.6   # 5 bins from 0.6 to 2.5
# /H1_2002_I581409/d04-x01-y02      0.6   # 4 bins from 0.9 to 2.5
# /H1_2002_I581409/d05-x01-y01      0.6   # 6 bins from 0 to 2.5
# /H1_2002_I581409/d05-x01-y02      0.6   # 4 bins from 0.6 to 2.1
# /H1_2002_I581409/d06-x01-y01      0.8   # 3 bins from 0.5 to 1
# /H1_2002_I581409/d06-x01-y02      0.8   # 5 bins from 0.1 to 1
# /H1_2002_I581409/d07-x01-y01      1.0   # 5 bins from 0.05 to 0.6
# /H1_2002_I581409/d07-x01-y02      0.1   # 5 bins from 0.05 to 0.6
# /H1_2002_I581409/d08-x01-y01      0.8   # 5 bins from 0.1 to 1
# /H1_2002_I581409/d08-x01-y02      0.8   # 5 bins from 0.1 to 1
# /H1_2002_I581409/d09-x01-y01      1.0   # 7 bins from 0 to 0.7
# /H1_2002_I581409/d09-x01-y02      0.1   # 7 bins from 0 to 0.7
# /H1_2002_I581409/d10-x01-y01      1.0   # 8 bins from 0 to 0.85
# /H1_2002_I581409/d10-x01-y02      0.1   # 8 bins from 0 to 0.85
# /ZEUS_1997_I450085/d01-x01-y01    0.5   # 11 bins from -1.125 to 1.625
# /ZEUS_1997_I450085/d02-x01-y01    0.5   # 10 bins from -0.875 to 1.625
# /ZEUS_1997_I450085/d03-x01-y01    0.5   # 4 bins from -0.375 to 1.625
# /ZEUS_1997_I450085/d04-x01-y01    0.5   # 4 bins from -0.375 to 1.625
# /ZEUS_1997_I450085/d21-x01-y01    0.1   # 9 bins from -1.125 to 1.125
# /ZEUS_1997_I450085/d22-x01-y01    0.1   # 8 bins from -0.875 to 1.125
# /ZEUS_1997_I450085/d23-x01-y01    0.1   # 4 bins from -0.375 to 1.625
# /ZEUS_1997_I450085/d24-x01-y01    0.1   # 4 bins from -0.375 to 1.625
# /ZEUS_1997_I450085/d25-x01-y01    1.0   # 8 bins from -0.375 to 1.5
# /ZEUS_1997_I450085/d26-x01-y01    1.0   # 8 bins from -0.375 to 1.625
# /ZEUS_1997_I450085/d27-x01-y01    1.0   # 3 bins from 0.125 to 1.625
# /ZEUS_1997_I450085/d28-x01-y01    1.0   # 3 bins from 0.125 to 1.625
# /ZEUS_2012_I1116258/d01-x01-y01   0.6   # 9 bins from 17 to 95
# /ZEUS_2012_I1116258/d02-x01-y01   0.6   # 13 bins from -0.75 to 2.5
# /ZEUS_2012_I1116258/d03-x01-y01   0.6   # 13 bins from -0.75 to 2.5
# /ZEUS_2012_I1116258/d04-x01-y01   0.6   # 5 bins from 17 to 41
# /ZEUS_2012_I1116258/d05-x01-y01   0.6   # 9 bins from 17 to 95
# /ZEUS_2012_I1116258/d06-x01-y01   0.6   # 9 bins from 17 to 95
# /ZEUS_2012_I1116258/d07-x01-y01   0.6   # 9 bins from 17 to 95
# /ZEUS_2012_I1116258/d08-x01-y01   0.6   # 9 bins from 17 to 95
# /ZEUS_2012_I1116258/d09-x01-y01   0.0   # 9 bins from 17 to 95
# /ZEUS_2012_I1116258/d10-x01-y01   0.0   # 9 bins from 17 to 95
# /ZEUS_2012_I1116258/d11-x01-y01   0.0   # 13 bins from -0.75 to 2.5
# /ZEUS_2012_I1116258/d12-x01-y01   0.0   # 13 bins from -0.75 to 2.5
#
# Mean contribution:
#
# /H1_2002_I581409/d01-x01-y01	0.625800
# /H1_2002_I581409/d02-x01-y01	0.734848
# /H1_2002_I581409/d03-x01-y01	0.712226
# /H1_2002_I581409/d04-x01-y01	1.192045
# /H1_2002_I581409/d04-x01-y02	0.869224
# /H1_2002_I581409/d05-x01-y01	4.112005
# /H1_2002_I581409/d05-x01-y02	1.116739
# /H1_2002_I581409/d06-x01-y01	2.856641
# /H1_2002_I581409/d06-x01-y02	8.457171
# /H1_2002_I581409/d07-x01-y01	1.804979
# /H1_2002_I581409/d07-x01-y02	0.102610
# /H1_2002_I581409/d08-x01-y01	7.321540
# /H1_2002_I581409/d08-x01-y02	3.282308
# /H1_2002_I581409/d09-x01-y01	0.907803
# /H1_2002_I581409/d09-x01-y02	0.050888
# /H1_2002_I581409/d10-x01-y01	1.722399
# /H1_2002_I581409/d10-x01-y02	0.046699
# /ZEUS_1997_I450085/d01-x01-y01	3.388646
# /ZEUS_1997_I450085/d02-x01-y01	1.427914
# /ZEUS_1997_I450085/d03-x01-y01	2.505042
# /ZEUS_1997_I450085/d04-x01-y01	0.482564
# /ZEUS_1997_I450085/d21-x01-y01	0.102563
# /ZEUS_1997_I450085/d22-x01-y01	0.026581
# /ZEUS_1997_I450085/d23-x01-y01	0.021119
# /ZEUS_1997_I450085/d24-x01-y01	0.019051
# /ZEUS_1997_I450085/d25-x01-y01	25.665334
# /ZEUS_1997_I450085/d26-x01-y01	18.068711
# /ZEUS_1997_I450085/d27-x01-y01	18.731436
# /ZEUS_1997_I450085/d28-x01-y01	2.430942
# /ZEUS_2012_I1116258/d01-x01-y01	3.987770
# /ZEUS_2012_I1116258/d02-x01-y01	14.039586
# /ZEUS_2012_I1116258/d03-x01-y01	5.195499
# /ZEUS_2012_I1116258/d04-x01-y01	7.767726
# /ZEUS_2012_I1116258/d05-x01-y01	6.825990
# /ZEUS_2012_I1116258/d06-x01-y01	5.411500
# /ZEUS_2012_I1116258/d07-x01-y01	2.365647
# /ZEUS_2012_I1116258/d08-x01-y01	1.316536
